…
distinct_city = 
  homicide_df %>%
  distinct(city_state)

cities_df = homicide_df %>%
  group_by(city_state) %>%
  summarize(
    unsolved = sum(resolution == "unsolved"),
    total = n()
  )

cities_df
```

    ## # A tibble: 50 × 3
    ##    city_state      unsolved total
    ##    <chr>              <int> <int>
    ##  1 Albuquerque, NM      146   378
    ##  2 Atlanta, GA          373   973
    ##  3 Baltimore, MD       1825  2827
    ##  4 Baton Rouge, LA      196   424
    ##  5 Birmingham, AL       347   800
    ##  6 Boston, MA           310   614
    ##  7 Buffalo, NY          319   521
    ##  8 Charlotte, NC        206   687
    ##  9 Chicago, IL         4073  5535
    ## 10 Cincinnati, OH       309   694
    ## # … with 40 more rows
…
``` r
all_df = 
  cities_df %>%
  mutate(
    test_results = map2(unsolved, total, prop.test),
    tidy_results = map(test_results, broom::tidy)
  ) %>%
  select(city_state, tidy_results) %>%
  unnest(tidy_results) %>%
  select(city_state, estimate, conf.low, conf.high)

all_df
```

    ## # A tibble: 50 × 4
    ##    city_state      estimate conf.low conf.high
    ##    <chr>              <dbl>    <dbl>     <dbl>
    ##  1 Albuquerque, NM    0.386    0.337     0.438
    ##  2 Atlanta, GA        0.383    0.353     0.415
    ##  3 Baltimore, MD      0.646    0.628     0.663
    ##  4 Baton Rouge, LA    0.462    0.414     0.511
    ##  5 Birmingham, AL     0.434    0.399     0.469
    ##  6 Boston, MA         0.505    0.465     0.545
    ##  7 Buffalo, NY        0.612    0.569     0.654
    ##  8 Charlotte, NC      0.300    0.266     0.336
    ##  9 Chicago, IL        0.736    0.724     0.747
    ## 10 Cincinnati, OH     0.445    0.408     0.483
    ## # … with 40 more rows
…
sim_results_df
```

    ## # A tibble: 5,000 × 2
    ##    estimate p.value
    ##       <dbl>   <dbl>
    ##  1   0.396  0.576  
    ##  2  -0.838  0.363  
    ##  3  -2.23   0.00656
    ##  4  -0.415  0.690  
    ##  5   0.134  0.899  
    ##  6   1.24   0.159  
    ##  7   0.520  0.459  
    ##  8  -0.0599 0.946  
    ##  9  -0.766  0.422  
    ## 10   0.685  0.561  
    ## # … with 4,990 more rows
…
